﻿{
  "aggs": {
    "CategoryStoreAGGS": {
      "terms": {
        "field": "CategoryStore2",
        "size": 10
      }
    }
  },
  "sort": [
    { "GOOD_NM": "desc" },
    { "DISCOUNT_VALUE": "desc" }
  ],
  "query": {
    "bool": {
      "must": {
        "multi_match": {
          "query": "禾聯 冷氣",
          "type": "cross_fields",
          "fields": [ "GOOD_NM^100", "Specifications^2", "Description", "keyword^2", "FugoSaleNo^100" ],
          "operator": "and"
        }
      },
      "filter": [
        { "match": { "ONLINE": "1" } },
        {
          "range": { "PRC": { "gte": 0, "lte": 50000  } }
        }
      ]
    }
  },
  "highlight": {
    "pre_tags": [ "<span class='marked'>" ],
    "post_tags": [ "</span>" ],
    "fields": {
      "GOOD_NM": { "term_vector": "with_positions_offsets" },
      "Description": { "term_vector": "with_positions_offsets" },
      "Specifications": { "term_vector": "with_positions_offsets" }
    }
  },
  "from": 0,
  "size": 10000
} 	
